{
  "project_info": {
    "project_number": "987406493787",
    "firebase_url": "https://app11-292502.firebaseio.com",
    "project_id": "app11-292502",
    "storage_bucket": "app11-292502.appspot.com"
  },
  "client": [
    {
      "client_info": {
        "mobilesdk_app_id": "1:987406493787:android:11c4c73b3832a9f4c6b77e",
        "android_client_info": {
          "package_name": "lana.ahmad.myapplication.app11"
        }
      },
      "oauth_client": [
        {
          "client_id": "987406493787-st0sk4dai89e0spcfbfjd4jqs2l8d904.apps.googleusercontent.com",
          "client_type": 3
        }
      ],
      "api_key": [
        {
          "current_key": "AIzaSyBaESJM7H-DuI2aYnU6HPz27OMZDTZNJtY"
        }
      ],
      "services": {
        "appinvite_service": {
          "other_platform_oauth_client": [
            {
              "client_id": "987406493787-st0sk4dai89e0spcfbfjd4jqs2l8d904.apps.googleusercontent.com",
              "client_type": 3
            }
          ]
        }
      }
    }
  ],
  "configuration_version": "1"
}